Fars
…
This function returns file name and path based on the input year

yr <- 2014
make_filename(yr)

## [1] "C:/Users/joao.correia/Documents/R/Coursera course/Fars/inst/extdata/accident_2014.csv.bz2"

Function ‘fars_read’

This function reads a file provided by the make_filename funtion

filename <- make_filename(2013)
fars_read(filename)

## # A tibble: 30,202 x 50
##    STATE ST_CASE VE_TOTAL VE_FORMS PVH_INVL  PEDS PERNOTMVIT PERMVIT PERSONS
##    <dbl>   <dbl>    <dbl>    <dbl>    <dbl> <dbl>      <dbl>   <dbl>   <dbl>
##  1     1   10001        1        1        0     0          0       8       8
##  2     1   10002        2        2        0     0          0       2       2
##  3     1   10003        1        1        0     0          0       1       1
##  4     1   10004        1        1        0     0          0       3       3
##  5     1   10005        2        2        0     0          0       3       3
##  6     1   10006        2        2        0     0          0       3       3
##  7     1   10007        1        1        0     0          0       1       1
##  8     1   10008        2        2        0     0          0       2       2
##  9     1   10009        1        1        0     0          0       1       1
## 10     1   10010        2        2        0     0          0       4       4
## # ... with 30,192 more rows, and 41 more variables: COUNTY <dbl>, CITY <dbl>,
## #   DAY <dbl>, MONTH <dbl>, YEAR <dbl>, DAY_WEEK <dbl>, HOUR <dbl>,
## #   MINUTE <dbl>, NHS <dbl>, ROAD_FNC <dbl>, ROUTE <dbl>, TWAY_ID <chr>,
## #   TWAY_ID2 <chr>, MILEPT <dbl>, LATITUDE <dbl>, LONGITUD <dbl>, SP_JUR <dbl>,
## #   HARM_EV <dbl>, MAN_COLL <dbl>, RELJCT1 <dbl>, RELJCT2 <dbl>, TYP_INT <dbl>,
## #   WRK_ZONE <dbl>, REL_ROAD <dbl>, LGT_COND <dbl>, WEATHER1 <dbl>,
## #   WEATHER2 <dbl>, WEATHER <dbl>, SCH_BUS <dbl>, RAIL <chr>, NOT_HOUR <dbl>,
## #   NOT_MIN <dbl>, ARR_HOUR <dbl>, ARR_MIN <dbl>, HOSP_HR <dbl>, HOSP_MN <dbl>,
## #   CF1 <dbl>, CF2 <dbl>, CF3 <dbl>, FATALS <dbl>, DRUNK_DR <dbl>

Function fars_read_years

Function that will be used by the fars_summarize_years function

fars_read_years(2013)

## [[1]]
## # A tibble: 30,202 x 2
##    MONTH  year
##    <dbl> <dbl>
##  1     1  2013
##  2     1  2013
##  3     1  2013
##  4     1  2013
##  5     1  2013
##  6     1  2013
##  7     1  2013
##  8     1  2013
##  9     1  2013
## 10     1  2013
## # ... with 30,192 more rows
…
